{
  "id": 12345,
  "name" : "店家名字店家名字",
  "address" : "12345",
  "qq" : "",
  "qrcode" : "",
  "contact" : [],
  "introduction": "我们是一家致力于更好的产品以及更好的服务体验的家具建材店家，十分希望有机会和您合作！",
  "displayImage": "",
  "category": [
    {
      "name" : "全部商品",
      "id" : "0"
    },
    {
      "name" : "卧室用品",
      "id" : "1"
    },
    {
      "name" : "床品",
      "id" : "2"
    }
  ],
  "goodsInfo" : {
    "currentClass" : "2",
    "goods" : [
      {
        "id" : 123,
        "name" : "合购家具 欧式布艺沙发客厅简约小户型实木转角贵妃组合可拆洗",
        "price": 2688,
        "sale":1,
        "displayImage" : "http://www.hetaojia.com/shop/hetao/index/2-1.jpg"
        "shopId": 12345,
        "shopName" : ""
      },
      {
        "id" : 456,
        "name" : "合购家具 欧式布艺沙发客厅简约小户型实木转角贵妃组合可拆洗",
        "price": 2688,
        "sale":1,
        "displayImage" : "http://www.hetaojia.com/shop/hetao/index/2-1.jpg"
        "shopId": 12345,
        "shopName" : ""
      },
      {
        "id" : 456,
        "name" : "合购家具 欧式布艺沙发客厅简约小户型实木转角贵妃组合可拆洗",
        "price": 2688,
        "sale":1,
        "displayImage" : "http://www.hetaojia.com/shop/hetao/index/2-1.jpg"
        "shopId": 12345,
        "shopName" : ""
      },
      {
        "id" : 456,
        "name" : "合购家具 欧式布艺沙发客厅简约小户型实木转角贵妃组合可拆洗",
        "price": 2688,
        "sale":1,
        "displayImage" : "http://www.hetaojia.com/shop/hetao/index/2-1.jpg"
        "shopId": 12345,
        "shopName" : ""
      },
      {
        "id" : 456,
        "name" : "合购家具 欧式布艺沙发客厅简约小户型实木转角贵妃组合可拆洗",
        "price": 2688,
        "sale":1,
        "displayImage" : "http://www.hetaojia.com/shop/hetao/index/2-1.jpg"
        "shopId": 12345,
        "shopName" : ""
      },
      {
        "id" : 456,
        "name" : "合购家具 欧式布艺沙发客厅简约小户型实木转角贵妃组合可拆洗",
        "price": 2688,
        "sale":1,
        "displayImage" : "http://www.hetaojia.com/shop/hetao/index/2-1.jpg"
        "shopId": 12345,
        "shopName" : ""
      }
    ],
    "page" : 1,
    "totalPage" : 3,
    "totalCount" : 33
  }
}